{
  "files": {
    "main.css": "/static/css/main.36161c95.chunk.css",
    "main.js": "/static/js/main.f6b8086b.chunk.js",
    "main.js.map": "/static/js/main.f6b8086b.chunk.js.map",
    "runtime~main.js": "/static/js/runtime~main.a8a9905a.js",
    "runtime~main.js.map": "/static/js/runtime~main.a8a9905a.js.map",
    "static/css/2.32bbf376.chunk.css": "/static/css/2.32bbf376.chunk.css",
    "static/js/2.9425ad6a.chunk.js": "/static/js/2.9425ad6a.chunk.js",
    "static/js/2.9425ad6a.chunk.js.map": "/static/js/2.9425ad6a.chunk.js.map",
    "index.html": "/index.html",
    "precache-manifest.229bfdd8b6fe80c4067afd2c718425c9.js": "/precache-manifest.229bfdd8b6fe80c4067afd2c718425c9.js",
    "service-worker.js": "/service-worker.js",
    "static/css/2.32bbf376.chunk.css.map": "/static/css/2.32bbf376.chunk.css.map",
    "static/css/main.36161c95.chunk.css.map": "/static/css/main.36161c95.chunk.css.map",
    "static/media/App.scss": "/static/media/Calibri.d3ac1e99.woff",
    "static/media/PokemonEvolutionChain.scss": "/static/media/arrow.9baaf521.svg",
    "static/media/logo.png": "/static/media/logo.23b9c66f.png"
  }
}